{
  "status": "success",
  "message": "OK",
  "result": {
    "current_page": 1,
    "data": [
      {
        "id": 2471412,
        "hashid": "r6qQNNgRlQX7w",
        "user_id": 9790,
        "folder_id": null,
        "name": "All Ditz And Jumbo Tits 4.mp4 - Copy",
        "extension": "mp4",
        "mimeType": "video\/mp4",
        "size": 1698092072,
        "hash": null,
        "view": 0,
        "status": "completed",
        "created_at": "2021-07-11T08:37:13.000000Z",
        "updated_at": "2021-07-11T08:37:13.000000Z",
        "deleted_at": null,
        "expired_at": null,
        "encoded": 0,
        "poster_id": "3k5o4w3kle1d5moz8zmdgx929qyx7g0r6pnjmz19.jpg"
      },
      {
        "id": 2471406,
        "hashid": "k4rZeeYDdZjdb",
        "user_id": 9790,
        "folder_id": null,
        "name": "Big Natural Titties.mp4 - Copy",
        "extension": "mp4",
        "mimeType": "video\/mp4",
        "size": 2004343133,
        "hash": null,
        "view": 0,
        "status": "completed",
        "created_at": "2021-07-11T08:36:50.000000Z",
        "updated_at": "2021-07-11T08:36:50.000000Z",
        "deleted_at": null,
        "expired_at": null,
        "encoded": 0,
        "poster_id": "579w95xqkrj4lo6d8mx9m6z23p1myeg0znw76zor.jpg"
      },
      {
        "id": 2471203,
        "hashid": "q3LmYo38MQENw",
        "user_id": 9790,
        "folder_id": null,
        "name": "Dirty 30s 5.mp4 - Copy",
        "extension": "mp4",
        "mimeType": "video\/mp4",
        "size": 1129315602,
        "hash": null,
        "view": 0,
        "status": "completed",
        "created_at": "2021-07-11T08:15:01.000000Z",
        "updated_at": "2021-07-11T08:15:01.000000Z",
        "deleted_at": null,
        "expired_at": null,
        "encoded": 0,
        "poster_id": "lqkpe9rm7gq5w31yvdyedkyvx6n40jzdokplmw06.jpg"
      },
      {
        "id": 2471194,
        "hashid": "k4rZeeYWkZjdb",
        "user_id": 9790,
        "folder_id": null,
        "name": "Dirty 30s 5.mp4 - Copy",
        "extension": "mp4",
        "mimeType": "video\/mp4",
        "size": 1129315602,
        "hash": null,
        "view": 0,
        "status": "completed",
        "created_at": "2021-07-11T08:13:13.000000Z",
        "updated_at": "2021-07-11T08:13:13.000000Z",
        "deleted_at": null,
        "expired_at": null,
        "encoded": 0,
        "poster_id": "lqkpe9rm7gq5w31yvdyedkyvx6n40jzdokplmw06.jpg"
      },
      {
        "id": 2471190,
        "hashid": "zKWm6ExlBZ85P",
        "user_id": 9790,
        "folder_id": null,
        "name": "Big Natural Titties 5.mp4 - Copy",
        "extension": "mp4",
        "mimeType": "video\/mp4",
        "size": 649853097,
        "hash": null,
        "view": 0,
        "status": "completed",
        "created_at": "2021-07-11T08:12:50.000000Z",
        "updated_at": "2021-07-11T08:12:50.000000Z",
        "deleted_at": null,
        "expired_at": null,
        "encoded": 0,
        "poster_id": "jogxgy67ojr4plke2kyx643v39d5nwqz0mx1513y.jpg"
      },
      {
        "id": 2471189,
        "hashid": "n9JZrgXY7mG72",
        "user_id": 9790,
        "folder_id": null,
        "name": "Porn Fidelity 26.mp4 - Copy",
        "extension": "mp4",
        "mimeType": "video\/mp4",
        "size": 813480159,
        "hash": null,
        "view": 0,
        "status": "completed",
        "created_at": "2021-07-11T08:12:50.000000Z",
        "updated_at": "2021-07-11T08:12:50.000000Z",
        "deleted_at": null,
        "expired_at": null,
        "encoded": 0,
        "poster_id": "3g0noe4dy1r7z3mj2l9yljr2w5gplq06nxk9xz74.jpg"
      },
      {
        "id": 2471175,
        "hashid": "5MVQGk0lwQEPj",
        "user_id": 9790,
        "folder_id": null,
        "name": "starlets-roccos.intimate.castings.44.mp4 - Copy",
        "extension": "mp4",
        "mimeType": "video\/mp4",
        "size": 1884296068,
        "hash": null,
        "view": 0,
        "status": "completed",
        "created_at": "2021-07-11T08:11:11.000000Z",
        "updated_at": "2021-07-11T08:11:11.000000Z",
        "deleted_at": null,
        "expired_at": null,
        "encoded": 0,
        "poster_id": "zq9eqjg7l491mwdovp4okmdvkxpyzr6e35n0n64d.jpg"
      },
      {
        "id": 2471162,
        "hashid": "e9BZa698jmwXx",
        "user_id": 9790,
        "folder_id": null,
        "name": "Handyman #26 - Trio Fan.mp4 - Copy",
        "extension": "mp4",
        "mimeType": "video\/mp4",
        "size": 1066113182,
        "hash": null,
        "view": 0,
        "status": "completed",
        "created_at": "2021-07-11T08:10:43.000000Z",
        "updated_at": "2021-07-11T08:10:43.000000Z",
        "deleted_at": null,
        "expired_at": null,
        "encoded": 0,
        "poster_id": "znprrolxqdgyjz192q69nk9847530nkempw6l3xg.jpg"
      },
      {
        "id": 2471154,
        "hashid": "YnqAKxLwPQ2PJ",
        "user_id": 9790,
        "folder_id": null,
        "name": "FPFYH_720_2021.mp4 - Copy",
        "extension": "mp4",
        "mimeType": "video\/mp4",
        "size": 2368438213,
        "hash": null,
        "view": 0,
        "status": "completed",
        "created_at": "2021-07-11T08:10:13.000000Z",
        "updated_at": "2021-07-11T08:10:13.000000Z",
        "deleted_at": null,
        "expired_at": null,
        "encoded": 0,
        "poster_id": "jr9oqgzpj1ok965x21k35yo870leynr3m4dw4xpk.jpg"
      },
      {
        "id": 2471151,
        "hashid": "dwPAV5BpzmR09",
        "user_id": 9790,
        "folder_id": null,
        "name": "Die Parkplatz-Schlampen.mp4 - Copy",
        "extension": "mp4",
        "mimeType": "video\/mp4",
        "size": 2195258307,
        "hash": null,
        "view": 0,
        "status": "completed",
        "created_at": "2021-07-11T08:09:41.000000Z",
        "updated_at": "2021-07-11T08:09:41.000000Z",
        "deleted_at": null,
        "expired_at": null,
        "encoded": 0,
        "poster_id": "1407l504dx79yzkj24q7l638eno1gwmr3qp63dx5.jpg"
      }
    ],
    "first_page_url": "http:\/\/api.ninjastream.to\/api\/file\/get?page=1",
    "from": 1,
    "last_page": 200,
    "last_page_url": "http:\/\/api.ninjastream.to\/api\/file\/get?page=200",
    "next_page_url": "http:\/\/api.ninjastream.to\/api\/file\/get?page=2",
    "path": "http:\/\/api.ninjastream.to\/api\/file\/get",
    "per_page": 10,
    "prev_page_url": null,
    "to": 10,
    "total": 1994
  }
}